…
``` r
library(osn)

# EDDF
state_vector(
  session,
  wef_time = "2019-01-01 09:00:00",
  til_time = "2019-01-01 10:00:00",
  bbox = c(7.553013, 49.378819,  9.585482, 50.688044),
  icao24 = NULL
)
#> # A tibble: 108,470 x 17
     time icao24   lat   lon velocity heading vertrate callsign onground alert spi   squawk
    <int> <fct>  <dbl> <dbl>    <dbl>   <dbl>    <dbl> <fct>    <lgl>    <lgl> <lgl> <fct> 
 1 1.55e9 06a063  50.4  7.56     272.    101.        0 QTR006   FALSE    FALSE FALSE 4734  
 2 1.55e9 06a063  50.4  7.56     272.    101.        0 QTR006   FALSE    FALSE FALSE 4734  
 3 1.55e9 06a063  50.4  7.56     272.    101.        0 QTR006   FALSE    FALSE FALSE 4734  
 4 1.55e9 06a063  50.4  7.57     272.    101.        0 QTR006   FALSE    FALSE FALSE 4734  
# … with 108,466 more rows, and 5 more variables: baroaltitude <dbl>, geoaltitude <dbl>,
#   lastposupdate <dbl>, lastcontact <dbl>, hour <int>
```
…
